module github.com/fourplusone/terraform-provider-jira

go 1.18

require (
	github.com/andygrunwald/go-jira v1.16.0
	github.com/pkg/errors v0.9.1
	github.com/trivago/tgo v1.0.7
)

require (
	github.com/ProtonMail/go-crypto v0.0.0-20230828082145-3c4c8a2d2371 // indirect
	github.com/apparentlymart/go-textseg/v15 v15.0.0 // indirect
	github.com/cloudflare/circl v1.3.7 // indirect
	github.com/hashicorp/go-cty v1.4.1-0.20200414143053-d3edf31b6320 // indirect
	github.com/hashicorp/hc-install v0.6.1 // indirect
	github.com/hashicorp/terraform-plugin-go v0.19.0 // indirect
	github.com/hashicorp/terraform-plugin-log v0.9.0 // indirect
	github.com/hashicorp/terraform-registry-address v0.2.2 // indirect
	github.com/kr/pretty v0.2.1 // indirect
	github.com/kr/text v0.2.0 // indirect
	github.com/stretchr/testify v1.8.1 // indirect
	github.com/vmihailenco/msgpack v4.0.4+incompatible // indirect
	github.com/vmihailenco/msgpack/v5 v5.3.5 // indirect
	github.com/vmihailenco/tagparser/v2 v2.0.0 // indirect
	google.golang.org/genproto/googleapis/rpc v0.0.0-20230525234030-28d5490b6b19 // indirect
	gopkg.in/check.v1 v1.0.0-20201130134442-10cb98267c6c // indirect
)

require (
	github.com/agext/levenshtein v1.2.2 // indirect
	github.com/fatih/color v1.13.0 // indirect
	github.com/fatih/structs v1.1.0 // indirect
	github.com/golang-jwt/jwt/v4 v4.4.2 // indirect
	github.com/golang/protobuf v1.5.3 // indirect
	github.com/google/go-cmp v0.6.0 // indirect
	github.com/google/go-querystring v1.1.0 // indirect
	github.com/hashicorp/errwrap v1.0.0 // indirect
	github.com/hashicorp/go-checkpoint v0.5.0 // indirect
	github.com/hashicorp/go-cleanhttp v0.5.2 // indirect
	github.com/hashicorp/go-hclog v1.5.0 // indirect
	github.com/hashicorp/go-multierror v1.1.1 // indirect
	github.com/hashicorp/go-plugin v1.5.1 // indirect
	github.com/hashicorp/go-uuid v1.0.3 // indirect
	github.com/hashicorp/go-version v1.6.0 // indirect
	github.com/hashicorp/hcl/v2 v2.19.1 // indirect
	github.com/hashicorp/logutils v1.0.0 // indirect
	github.com/hashicorp/terraform-exec v0.19.0 // indirect
	github.com/hashicorp/terraform-json v0.17.1 // indirect
	github.com/hashicorp/terraform-plugin-sdk/v2 v2.30.0
	github.com/hashicorp/terraform-svchost v0.1.1 // indirect
	github.com/hashicorp/yamux v0.0.0-20181012175058-2f1d1f20f75d // indirect
	github.com/mattn/go-colorable v0.1.12 // indirect
	github.com/mattn/go-isatty v0.0.14 // indirect
	github.com/mitchellh/copystructure v1.2.0 // indirect
	github.com/mitchellh/go-testing-interface v1.14.1 // indirect
	github.com/mitchellh/go-wordwrap v1.0.0 // indirect
	github.com/mitchellh/mapstructure v1.5.0 // indirect
	github.com/mitchellh/reflectwalk v1.0.2 // indirect
	github.com/oklog/run v1.0.0 // indirect
	github.com/zclconf/go-cty v1.14.1 // indirect
	golang.org/x/crypto v0.17.0 // indirect
	golang.org/x/mod v0.13.0 // indirect
	golang.org/x/net v0.17.0 // indirect
	golang.org/x/sys v0.15.0 // indirect
	golang.org/x/text v0.14.0 // indirect
	google.golang.org/appengine v1.6.7 // indirect
	google.golang.org/grpc v1.57.1 // indirect
	google.golang.org/protobuf v1.31.0 // indirect
)
